{
	"info": {
		"_postman_id": "98a39519-8299-4726-9010-eb1a12ddc967",
		"name": "Kinsa Cafe API",
		"schema": "https://schema.getpostman.com/json/collection/v2.1.0/collection.json"
	},
	"item": [
		{
			"name": "find cafe",
			"request": {
				"method": "GET",
				"header": [],
				"body": {},
				"url": {
					"raw": "localhost:5000/cafes/:id",
					"host": [
						"localhost"
					],
					"port": "5000",
					"path": [
						"cafes",
						":id"
					],
					"variable": [
						{
							"key": "id",
							"value": "1"
						}
					]
				}
			},
			"response": []
		},
		{
			"name": "create cafe",
			"request": {
				"method": "POST",
				"header": [
					{
						"key": "Content-Type",
						"value": "application/x-www-form-urlencoded"
					}
				],
				"body": {
					"mode": "urlencoded",
					"urlencoded": [
						{
							"key": "name",
							"value": "This Great New Place",
							"type": "text"
						},
						{
							"key": "address",
							"value": "8888 Street",
							"type": "text"
						},
						{
							"key": "latitude",
							"value": "45",
							"type": "text"
						},
						{
							"key": "longitude",
							"value": "100",
							"type": "text"
						}
					]
				},
				"url": {
					"raw": "localhost:5000/cafes",
					"host": [
						"localhost"
					],
					"port": "5000",
					"path": [
						"cafes"
					]
				}
			},
			"response": []
		},
		{
			"name": "update cafe",
			"request": {
				"method": "PUT",
				"header": [
					{
						"key": "Content-Type",
						"value": "application/x-www-form-urlencoded"
					}
				],
				"body": {
					"mode": "urlencoded",
					"urlencoded": [
						{
							"key": "name",
							"value": "updated name",
							"type": "text"
						},
						{
							"key": "address",
							"value": "3456 better lane\n",
							"type": "text"
						},
						{
							"key": "latitude",
							"value": "46",
							"type": "text"
						},
						{
							"key": "longitude",
							"value": "100",
							"type": "text"
						}
					]
				},
				"url": {
					"raw": "localhost:5000/cafes/:id",
					"host": [
						"localhost"
					],
					"port": "5000",
					"path": [
						"cafes",
						":id"
					],
					"variable": [
						{
							"key": "id",
							"value": "7"
						}
					]
				}
			},
			"response": []
		},
		{
			"name": "delete cafe",
			"request": {
				"method": "DELETE",
				"header": [
					{
						"key": "Content-Type",
						"value": "application/x-www-form-urlencoded"
					}
				],
				"body": {},
				"url": {
					"raw": "localhost:5000/cafes/:id",
					"host": [
						"localhost"
					],
					"port": "5000",
					"path": [
						"cafes",
						":id"
					],
					"variable": [
						{
							"key": "id",
							"value": "20"
						}
					]
				}
			},
			"response": []
		},
		{
			"name": "find nearest cafe given an address",
			"request": {
				"method": "POST",
				"header": [
					{
						"key": "Content-Type",
						"value": "application/x-www-form-urlencoded"
					}
				],
				"body": {
					"mode": "urlencoded",
					"urlencoded": [
						{
							"key": "",
							"value": "",
							"type": "text",
							"disabled": true
						},
						{
							"key": "address",
							"value": "535 Mission St., San Francisco, CA",
							"type": "text"
						},
						{
							"key": "",
							"value": "",
							"type": "text",
							"disabled": true
						},
						{
							"key": "",
							"value": "",
							"type": "text",
							"disabled": true
						}
					]
				},
				"url": {
					"raw": "localhost:5000/cafes/find_nearest",
					"host": [
						"localhost"
					],
					"port": "5000",
					"path": [
						"cafes",
						"find_nearest"
					]
				}
			},
			"response": []
		},
		{
			"name": "err: find nonexistent cafe",
			"request": {
				"method": "GET",
				"header": [
					{
						"key": "Content-Type",
						"value": "application/x-www-form-urlencoded"
					}
				],
				"body": {
					"mode": "urlencoded",
					"urlencoded": [
						{
							"key": "name",
							"value": "thing",
							"type": "text"
						},
						{
							"key": "address",
							"value": "here",
							"type": "text"
						},
						{
							"key": "latitude",
							"value": "45",
							"type": "text"
						},
						{
							"key": "longitude",
							"value": "100",
							"type": "text"
						}
					]
				},
				"url": {
					"raw": "localhost:5000/cafes/39999",
					"host": [
						"localhost"
					],
					"port": "5000",
					"path": [
						"cafes",
						"39999"
					]
				}
			},
			"response": []
		},
		{
			"name": "err: create with incomplete data",
			"request": {
				"method": "POST",
				"header": [
					{
						"key": "Content-Type",
						"value": "application/x-www-form-urlencoded"
					}
				],
				"body": {
					"mode": "urlencoded",
					"urlencoded": [
						{
							"key": "address",
							"value": "here",
							"type": "text"
						},
						{
							"key": "latitude",
							"value": "45",
							"type": "text"
						},
						{
							"key": "longitude",
							"value": "100",
							"type": "text"
						}
					]
				},
				"url": {
					"raw": "localhost:5000/cafes",
					"host": [
						"localhost"
					],
					"port": "5000",
					"path": [
						"cafes"
					]
				}
			},
			"response": []
		},
		{
			"name": "err: edit nonexistent record",
			"request": {
				"method": "PUT",
				"header": [
					{
						"key": "Content-Type",
						"value": "application/x-www-form-urlencoded"
					}
				],
				"body": {
					"mode": "urlencoded",
					"urlencoded": [
						{
							"key": "name",
							"value": "thing",
							"type": "text"
						},
						{
							"key": "address",
							"value": "here",
							"type": "text"
						},
						{
							"key": "latitude",
							"value": "45",
							"type": "text"
						},
						{
							"key": "longitude",
							"value": "100",
							"type": "text"
						}
					]
				},
				"url": {
					"raw": "localhost:5000/cafes/35425",
					"host": [
						"localhost"
					],
					"port": "5000",
					"path": [
						"cafes",
						"35425"
					]
				}
			},
			"response": []
		},
		{
			"name": "err: edit with incomplete data",
			"request": {
				"method": "PUT",
				"header": [
					{
						"key": "Content-Type",
						"value": "application/x-www-form-urlencoded"
					}
				],
				"body": {
					"mode": "urlencoded",
					"urlencoded": [
						{
							"key": "address",
							"value": "123 new",
							"type": "text"
						},
						{
							"key": "name",
							"value": "updated name",
							"type": "text"
						}
					]
				},
				"url": {
					"raw": "localhost:5000/cafes/:id",
					"host": [
						"localhost"
					],
					"port": "5000",
					"path": [
						"cafes",
						":id"
					],
					"variable": [
						{
							"key": "id",
							"value": "1"
						}
					]
				}
			},
			"response": [
				{
					"name": "err: edit with incomplete data",
					"originalRequest": {
						"method": "PUT",
						"header": [
							{
								"key": "Content-Type",
								"value": "application/x-www-form-urlencoded",
								"disabled": false
							}
						],
						"body": {
							"mode": "urlencoded",
							"urlencoded": [
								{
									"key": "address",
									"value": "123 new",
									"type": "text"
								}
							]
						},
						"url": {
							"raw": "localhost:5000/cafes/6",
							"host": [
								"localhost"
							],
							"port": "5000",
							"path": [
								"cafes",
								"6"
							]
						}
					},
					"status": "Unprocessable Entity",
					"code": 422,
					"_postman_previewlanguage": "json",
					"header": [
						{
							"key": "Connection",
							"value": "keep-alive",
							"name": "Connection",
							"description": "Options that are desired for the connection"
						},
						{
							"key": "Content-Length",
							"value": "125",
							"name": "Content-Length",
							"description": "The length of the response body in octets (8-bit bytes)"
						},
						{
							"key": "Content-Type",
							"value": "application/json; charset=utf-8",
							"name": "Content-Type",
							"description": "The mime type of this content"
						},
						{
							"key": "Date",
							"value": "Sat, 01 Sep 2018 03:38:54 GMT",
							"name": "Date",
							"description": "The date and time that the message was sent"
						},
						{
							"key": "ETag",
							"value": "W/\"7d-TQ5ByBCjHiuXsFlJ4mK0SbOoQt8\"",
							"name": "ETag",
							"description": "An identifier for a specific version of a resource, often a message digest"
						},
						{
							"key": "X-Powered-By",
							"value": "Express",
							"name": "X-Powered-By",
							"description": "Specifies the technology (ASP.NET, PHP, JBoss, e.g.) supporting the web application (version details are often in X-Runtime, X-Version, or X-AspNet-Version)"
						}
					],
					"cookie": [],
					"body": "{\"message\":\"please include required fields when creating a new coffee shop\",\"missing_fields\":[\"name\",\"latitude\",\"longitude\"]}"
				}
			]
		},
		{
			"name": "err: find nearest, no address",
			"request": {
				"method": "POST",
				"header": [
					{
						"key": "Content-Type",
						"value": "application/x-www-form-urlencoded"
					}
				],
				"body": {},
				"url": {
					"raw": "localhost:5000/cafes/find_nearest",
					"host": [
						"localhost"
					],
					"port": "5000",
					"path": [
						"cafes",
						"find_nearest"
					]
				}
			},
			"response": []
		}
	]
}